name|surname|username|2222CA|13.1.2018|Lives Of Others|3|C|rezervisana|
pera|peric|pera|2222CA|13.1.2018|Lives Of Others|4|C|rezervisana|
pera|peric|pera||1111AA|13.1.2018|Lives Of Others|6|B|rezervisana|
pera|peric|pera|1111AA|1.1.2018|Fight Club|1|A|rezervisana|
pera|peric|pera|1111AA|1.1.2018|Fight Club|1|B|rezersivana|
ime|prezime|1|1111AA|1.1.2018|Fight Club|4|H|Rezervisana|
ime|prezime|1|1111AA|1.1.2018|Fight Club|3|Q|Rezervisana|
milos|curcic|mladi lord|1111AA|1.1.2018|Fight Club|6|E|Rezervisana|
ime|prezime|u|1111AA|1.1.2018|Fight Club|9|A|Rezervisana|
ime|prezime|1|1111AA|1.1.2018|Fight Club|99|AA|Rezervisana||
1||1|1111AA|1.1.2018|Fight Club|1|1|Rezervisana|
ime|prezime|1|1111AA|1.1.2018|Fight Club|7|7|Rezervisana|
|
ime|prezime|1|2222CC|6.1.2018|Lives Of Others|9|U|Rezervisana|
