kupac|prezime|usernamkupca|1111AA|1.1.2018|Fight Club|6|H|Prodata|15.01.18.|250
sohla|kupacime|kupacprezime|kupacusername|2222CC|6.1.2018|Lives Of Others|6|C|Prodata|16.01.19.|900
username|1|1|1|1111AA|1.1.2018|Fight Club|1|1|Prodata|18.01.18.|200
username|1|www|wwwww|1111AA|1.1.2018|Fight Club|0|0|Prodata|18.01.18.|250
username|qpc|prezir|user|1111AA|1.1.2018|Fight Club|99|aa|Prodata|18.01.18.|100
username|qpc|prezir|user|1111AA|1.1.2018|Fight Club|97|AC|Prodata|18.01.18.|250
